{
  "profiles": {
    "Aaravos.Compiler": {
      "commandName": "Project",
      "commandLineArgs": "\"C:\\Users\\domin\\source\\repos\\Aaravos\\samples\\int-calc\\int-calc.arvs\" -r=\"C:\\Program Files (x86)\\Reference Assemblies\\Microsoft\\Framework\\.NETFramework\\v4.7.2\\mscorlib.dll\""
    }
  }
}